[
    {
        "role":"Tecnico informatico",
        "company":"Assistenza Diretta, Altamura (Italia)",
        "summary":"Lavoro di assistenza effettuato in proprio con esperienza di riparazione di computer desktop e notebook, assemblaggio computer desktop, assistenza hardware, software e networking. Competenze in installazione e manutenzione programmi Windows nelle varie edizioni professionali e domestiche, Linux, DOS",
        "range":"2014 - Presente"
    },
    {
        "role":"Sistemista in Windows e Networking",
        "company":"Logos Informatica, Altamura (Italia)",
        "summary":"Stage conseguito attraverso la scuola superiore di secondo grado nell'azienda Logos Informatica di Altamura dove ho approfondito la conoscenza del mondo del sistemista",
        "range":"Marzo 2014 - Maggio 2014"
    },
    {
        "role":"Tecnico informatico in apprendistato",
        "company":"Helios 2000, Altamura (Italia)",
        "summary":"Collaborazione con studio professionale per vendita prodotti informatici, progettazione e manutenzione di siti web, manutenzioni di reti informatiche. Sviluppate le competenze nella programmazione web attraverso l'uso del CMS WordPress e dei linguaggi PHP, Javascript e CSS.",
        "range":"2013 - 2014"
    }
]
