[
    {
        "role":"Computer technician",
        "company":"Direct Assistance, Altamura (Italy)",
        "summary":"Self-help work with desktop and notebook repair experience, desktop computer assembly, hardware assistance, software and networking. Skills in installation and maintenance of Windows programs in the various professional and domestic editions, and Linux",
        "range":"2014 - Present"
    },
    {
        "role":"System administrator in Windows and Networking",
        "company":"Logos Informatica, Altamura (Italy)",
        "summary":"Internship achieved through the second grade high school in the Logos Informatica company in Altamura where I deepened my knowledge of the world of systems engineering",
        "range":"March 2014 - May 2014"
    },
    {
        "role":"Computer technician in apprenticeship",
        "company":"Helios 2000, Altamura (Italy)",
        "summary":"Collaboration with a professional studio for the sale of IT products, website design and maintenance, computer network maintenance. Develop skills in web programming through the use of WordPress CMS and PHP, Javascript and CSS languages.",
        "range":"2013 - 2014"
    }
]
